<svg width="34" height="37" viewBox="0 0 34 37" fill="none" xmlns="http://www.w3.org/2000/svg">
<path d="M9.93217 30.2739C8.00193 30.2739 6.44033 28.7097 6.44033 26.7821V10.3187C6.44033 8.39102 8.00449 6.82686 9.93217 6.82686H13.0579V0.593262H11.1021C5.08609 0.593262 0.20929 5.47006 0.20929 11.4861V25.6121C0.20929 31.6281 5.08609 36.5049 11.1021 36.5049H13.0579V30.2739H9.93217Z" fill="white"/>
<path d="M24.0794 6.8243C26.0096 6.8243 27.5712 8.38846 27.5712 10.3161V26.7795C27.5712 28.7072 26.0071 30.2713 24.0794 30.2713H20.9536V36.5024H22.9095C28.9255 36.5024 33.8023 31.6256 33.8023 25.6096V11.4835C33.8023 5.4675 28.9255 0.590698 22.9095 0.590698H20.9536V6.82174H24.0794V6.8243Z" fill="white"/>
</svg>
