<svg width="52" height="52" viewBox="0 0 52 52" fill="none" xmlns="http://www.w3.org/2000/svg">
<circle cx="26" cy="26" r="25.5" stroke="#4BCCB9"/>
<path d="M21.7497 30.95L15.7997 25L13.8164 26.9833L21.7497 34.9167L38.7497 17.9167L36.7664 15.9333L21.7497 30.95Z" fill="#4BCCB9"/>
</svg>
